<?xml version="1.0" encoding="UTF-8" standalone="no"?>
<svg
   xmlns:dc="http://purl.org/dc/elements/1.1/"
   xmlns:cc="http://creativecommons.org/ns#"
   xmlns:rdf="http://www.w3.org/1999/02/22-rdf-syntax-ns#"
   xmlns:svg="http://www.w3.org/2000/svg"
   xmlns="http://www.w3.org/2000/svg"
   xmlns:sodipodi="http://sodipodi.sourceforge.net/DTD/sodipodi-0.dtd"
   xmlns:inkscape="http://www.inkscape.org/namespaces/inkscape"
   width="250"
   height="250"
   viewBox="0 0 250 250"
   version="1.1"
   id="svg8"
   inkscape:version="1.0.2 (e86c870, 2021-01-15)"
   sodipodi:docname="FillBetweenMany_multi_px_1_0_2.svg">
  <metadata
     id="metadata79">
    <rdf:RDF>
      <cc:Work
         rdf:about="">
        <dc:format>image/svg+xml</dc:format>
        <dc:type
           rdf:resource="http://purl.org/dc/dcmitype/StillImage" />
      </cc:Work>
    </rdf:RDF>
  </metadata>
  <sodipodi:namedview
     pagecolor="#ffffff"
     bordercolor="#000000"
     borderopacity="0.25"
     objecttolerance="10"
     gridtolerance="10"
     guidetolerance="10"
     inkscape:pageopacity="0"
     inkscape:pageshadow="2"
     inkscape:window-width="1920"
     inkscape:window-height="1011"
     id="namedview77"
     showgrid="false"
     inkscape:zoom="1.544"
     inkscape:cx="3.1338782"
     inkscape:cy="87.806634"
     inkscape:window-x="0"
     inkscape:window-y="32"
     inkscape:window-maximized="1"
     inkscape:current-layer="layer1" />
  <defs
     id="defs2">
    <inkscape:path-effect
       effect="fill_between_many"
       id="path-effect152"
       is_visible="true"
       linkedpaths="#path04,1,1|#path03,1,1|#path01,0,1"
       allow_transforms="false"
       join="true"
       close="true"
       autoreverse="true"
       method="bsplinespiro"
       lpeversion="1"
       applied="false" />
    <inkscape:path-effect
       effect="fill_between_many"
       id="path-effect134"
       is_visible="true"
       linkedpaths="#path04,0,1|#path03,1,1|#path01,0,1"
       allow_transforms="false"
       join="true"
       close="true"
       autoreverse="false"
       method="bsplinespiro"
       lpeversion="1"
       applied="false" />
    <inkscape:path-effect
       effect="spiro"
       id="path-effect130"
       is_visible="true"
       lpeversion="1" />
    <inkscape:path-effect
       effect="bspline"
       id="path-effect126"
       is_visible="true"
       weight="33.333333"
       steps="2"
       helper_size="0"
       apply_no_weight="true"
       apply_with_weight="true"
       only_selected="false"
       lpeversion="1" />
    <inkscape:path-effect
       effect="fill_between_many"
       id="path-effect3734"
       is_visible="true"
       linkedpaths="#path04,0,1|#path03,0,1|#path01,0,1"
       allow_transforms="false"
       join="false"
       close="false"
       autoreverse="false"
       method="bsplinespiro"
       lpeversion="1"
       applied="false" />
    <inkscape:path-effect
       effect="spiro"
       id="path-effect3730"
       is_visible="true"
       lpeversion="1" />
    <inkscape:path-effect
       effect="bspline"
       id="path-effect3726"
       is_visible="true"
       weight="33.333333"
       steps="2"
       helper_size="0"
       apply_no_weight="true"
       apply_with_weight="true"
       only_selected="false"
       lpeversion="1" />
  </defs>
  <g
     inkscape:label="Layer 1"
     inkscape:groupmode="layer"
     id="layer1">
    <path
       style="fill:none;stroke:#000000;stroke-width:0.264583px;stroke-linecap:butt;stroke-linejoin:miter;stroke-opacity:1"
       d="M 164.58461,84.581377 C 175.16806,56.358842 185.7514,28.136621 206.4139,23.600982 227.0764,19.065343 257.81881,38.216349 272.81183,61.020724 287.80486,83.8251 287.0489,110.28349 286.29294,136.7421"
       id="path04"
       inkscape:connector-curvature="0"
       inkscape:path-effect="#path-effect3726"
       inkscape:original-d="m 164.58461,84.581377 c 10.5836,-28.222479 21.16693,-56.444702 31.75,-84.66665955 C 227.0766,19.065027 257.819,38.21604 288.5608,57.367098 287.80511,83.825107 287.04916,110.2835 286.29294,136.7421" />
    <path
       style="fill:none;stroke:#000000;stroke-width:0.264583px;stroke-linecap:butt;stroke-linejoin:miter;stroke-opacity:1"
       d="m 136.61437,132.96233 c -27.15226,-2.1456 -54.903677,3.99173 -78.619037,17.38691 -17.285637,9.76347 -32.633689,23.59056 -42.023911,41.08177 -9.3902227,17.49121 -12.3682734,38.82308 -5.847752,57.57412 3.26026,9.37551 8.835183,17.97721 16.273648,24.5498 7.438465,6.57258 16.746289,11.07104 26.567806,12.5089 9.821518,1.43786 20.121774,-0.23726 28.838557,-4.98566 8.716783,-4.74841 15.765782,-12.58882 19.280929,-21.87178 2.82571,-7.46225 3.36229,-15.60038 3.12631,-23.57623 -0.23598,-7.97585 -1.21289,-15.92101 -1.29111,-23.89996 -0.0782,-7.97896 0.78695,-16.12083 4.05014,-23.40242 1.63159,-3.64079 3.85914,-7.03318 6.69634,-9.83814 2.8372,-2.80495 6.29381,-5.01194 10.09689,-6.21778 5.78669,-1.83479 12.18693,-1.27081 17.8335,0.95819 5.64658,2.22899 10.57524,6.04272 14.67108,10.52338 8.19169,8.96131 13.06941,20.36433 19.08416,30.91097 3.00738,5.27332 6.34746,10.39822 10.48672,14.8388 4.13927,4.44057 9.12074,8.19244 14.80274,10.32953 5.68199,2.13709 12.09857,2.57639 17.8421,0.61064 2.87176,-0.98287 5.54939,-2.55575 7.74887,-4.64749 2.19948,-2.09173 3.91328,-4.705 4.87608,-7.58355 1.82246,-5.44871 0.8647,-11.51833 -1.4097,-16.7944 -2.2744,-5.27607 -5.77632,-9.91315 -9.21537,-14.51562 -3.43905,-4.60247 -6.88547,-9.29212 -9.0238,-14.62479 -1.06916,-2.66634 -1.79996,-5.48228 -1.98805,-8.34882 -0.18809,-2.86654 0.17646,-5.78637 1.2262,-8.46041 2.05929,-5.24573 6.85674,-9.32632 12.36491,-10.51727 5.50818,-1.19096 11.56287,0.54322 15.60533,4.46965"
       id="path03"
       inkscape:connector-curvature="0"
       inkscape:path-effect="#path-effect3730"
       inkscape:original-d="m 136.61437,132.96233 c -26.20608,5.79538 -52.412427,11.59101 -78.619037,17.38691 -26.20662,5.7959 28.72645,72.57116 43.089277,108.85715 14.36283,36.28596 15.11931,-57.95662 22.67857,-86.93453 7.55926,-28.97791 71.56376,37.29338 107.34525,55.94047 35.78147,18.64709 -13.60688,-41.82962 -20.41072,-62.74404 -6.80384,-20.91442 18.64709,-4.03201 27.97024,-6.04762" />
    <path
       style="fill:#00ff00;stroke:#000000;stroke-width:0.264583px;stroke-linecap:butt;stroke-linejoin:miter;stroke-opacity:1"
       d="m 164.58461,84.581377 c 10.58345,-28.222535 21.16679,-56.444756 41.82929,-60.980395 20.6625,-4.535639 51.40491,14.615367 66.39793,37.419742 14.99303,22.804376 14.23707,49.262766 13.48111,75.721376 l -47.62499,22.67857 c -4.04246,-3.92643 -10.09715,-5.66061 -15.60533,-4.46965 -5.50817,1.19095 -10.30562,5.27154 -12.36491,10.51727 -1.04974,2.67404 -1.41429,5.59387 -1.2262,8.46041 0.18809,2.86654 0.91889,5.68248 1.98805,8.34882 2.13833,5.33267 5.58475,10.02232 9.0238,14.62479 3.43905,4.60247 6.94097,9.23955 9.21537,14.51562 2.2744,5.27607 3.23216,11.34569 1.4097,16.7944 -0.9628,2.87855 -2.6766,5.49182 -4.87608,7.58355 -2.19948,2.09174 -4.87711,3.66462 -7.74887,4.64749 -5.74353,1.96575 -12.16011,1.52645 -17.8421,-0.61064 -5.682,-2.13709 -10.66347,-5.88896 -14.80274,-10.32953 -4.13926,-4.44058 -7.47934,-9.56548 -10.48672,-14.8388 -6.01475,-10.54664 -10.89247,-21.94966 -19.08416,-30.91097 -4.09584,-4.48066 -9.0245,-8.29439 -14.67108,-10.52338 -5.64657,-2.229 -12.04681,-2.79298 -17.8335,-0.95819 -3.80308,1.20584 -7.25969,3.41283 -10.09689,6.21778 -2.8372,2.80496 -5.06475,6.19735 -6.69634,9.83814 -3.26319,7.28159 -4.12836,15.42346 -4.05014,23.40242 0.0782,7.97895 1.05513,15.92411 1.29111,23.89996 0.23598,7.97585 -0.3006,16.11398 -3.12631,23.57623 -3.515147,9.28296 -10.564146,17.12337 -19.280929,21.87178 -8.716783,4.7484 -19.017039,6.42352 -28.838557,4.98566 -9.821517,-1.43786 -19.129341,-5.93632 -26.567806,-12.5089 -7.438465,-6.57259 -13.013388,-15.17429 -16.273648,-24.5498 -6.5205214,-18.75104 -3.5424707,-40.08291 5.847752,-57.57412 9.390222,-17.49121 24.738274,-31.3183 42.023911,-41.08177 23.71536,-13.39518 51.466777,-19.53251 78.619037,-17.38691 L 80.673903,95.164717 20.953663,-2.3531396 98.816761,-40.906712 142.66199,32.420668 Z"
       id="path06"
       inkscape:test-ignore="true"
       inkscape:connector-curvature="0"
       inkscape:path-effect="#path-effect134"
       inkscape:original-d="m 710.18478,-139.75065 c 0,-3.77975 -60.47619,-65.76784 -60.47619,-65.76784 l -60.47618,65.76784 59.72023,47.625008 55.18452,-9.071428" />
    <path
       style="fill:#00ff00;stroke:#000000;stroke-width:0.264583px;stroke-linecap:butt;stroke-linejoin:miter;stroke-opacity:1"
       d="m 164.58461,84.581377 c 10.58345,-28.222535 21.16679,-56.444756 41.82929,-60.980395 20.6625,-4.535639 51.40491,14.615367 66.39793,37.419742 14.99303,22.804376 14.23707,49.262766 13.48111,75.721376 m -149.67857,-3.77977 c -27.15226,-2.1456 -54.903677,3.99173 -78.619037,17.38691 -17.285637,9.76347 -32.633689,23.59056 -42.023911,41.08177 -9.3902227,17.49121 -12.3682734,38.82308 -5.847752,57.57412 3.26026,9.37551 8.835183,17.97721 16.273648,24.5498 7.438465,6.57258 16.746289,11.07104 26.567806,12.5089 9.821518,1.43786 20.121774,-0.23726 28.838557,-4.98566 8.716783,-4.74841 15.765782,-12.58882 19.280929,-21.87178 2.82571,-7.46225 3.36229,-15.60038 3.12631,-23.57623 -0.23598,-7.97585 -1.21289,-15.92101 -1.29111,-23.89996 -0.0782,-7.97896 0.78695,-16.12083 4.05014,-23.40242 1.63159,-3.64079 3.85914,-7.03318 6.69634,-9.83814 2.8372,-2.80495 6.29381,-5.01194 10.09689,-6.21778 5.78669,-1.83479 12.18693,-1.27081 17.8335,0.95819 5.64658,2.22899 10.57524,6.04272 14.67108,10.52338 8.19169,8.96131 13.06941,20.36433 19.08416,30.91097 3.00738,5.27332 6.34746,10.39822 10.48672,14.8388 4.13927,4.44057 9.12074,8.19244 14.80274,10.32953 5.68199,2.13709 12.09857,2.57639 17.8421,0.61064 2.87176,-0.98287 5.54939,-2.55575 7.74887,-4.64749 2.19948,-2.09173 3.91328,-4.705 4.87608,-7.58355 1.82246,-5.44871 0.8647,-11.51833 -1.4097,-16.7944 -2.2744,-5.27607 -5.77632,-9.91315 -9.21537,-14.51562 -3.43905,-4.60247 -6.88547,-9.29212 -9.0238,-14.62479 -1.06916,-2.66634 -1.79996,-5.48228 -1.98805,-8.34882 -0.18809,-2.86654 0.17646,-5.78637 1.2262,-8.46041 2.05929,-5.24573 6.85674,-9.32632 12.36491,-10.51727 5.50818,-1.19096 11.56287,0.54322 15.60533,4.46965 M 80.673903,95.164717 20.953663,-2.3531396 98.816761,-40.906712 142.66199,32.420668"
       id="path02"
       inkscape:connector-curvature="0"
       inkscape:path-effect="#path-effect3734"
       inkscape:original-d="m 1382.4022,-62.313862 c 0,-3.77976 -60.4762,-65.767848 -60.4762,-65.767848 l -60.4761,65.767848 59.7202,47.625008 55.1845,-9.071432" />
    <path
       style="fill:none;stroke:#000000;stroke-width:0.264583px;stroke-linecap:butt;stroke-linejoin:miter;stroke-opacity:1"
       d="M 80.673903,95.164717 20.953663,-2.3531396 98.816761,-40.906712 142.66199,32.420668"
       id="path01"
       inkscape:connector-curvature="0" />
    <path
       style="fill:#00ff00;stroke:#000000;stroke-width:0.264583px;stroke-linecap:butt;stroke-linejoin:miter;stroke-opacity:1"
       d="m 164.58461,84.581377 c 10.58345,-28.222535 21.16679,-56.444756 41.82929,-60.980395 20.6625,-4.535639 51.40491,14.615367 66.39793,37.419742 14.99303,22.804376 14.23707,49.262766 13.48111,75.721376 l -47.62499,22.67857 c -4.04246,-3.92643 -10.09715,-5.66061 -15.60533,-4.46965 -5.50817,1.19095 -10.30562,5.27154 -12.36491,10.51727 -1.04974,2.67404 -1.41429,5.59387 -1.2262,8.46041 0.18809,2.86654 0.91889,5.68248 1.98805,8.34882 2.13833,5.33267 5.58475,10.02232 9.0238,14.62479 3.43905,4.60247 6.94097,9.23955 9.21537,14.51562 2.2744,5.27607 3.23216,11.34569 1.4097,16.7944 -0.9628,2.87855 -2.6766,5.49182 -4.87608,7.58355 -2.19948,2.09174 -4.87711,3.66462 -7.74887,4.64749 -5.74353,1.96575 -12.16011,1.52645 -17.8421,-0.61064 -5.682,-2.13709 -10.66347,-5.88896 -14.80274,-10.32953 -4.13926,-4.44058 -7.47934,-9.56548 -10.48672,-14.8388 -6.01475,-10.54664 -10.89247,-21.94966 -19.08416,-30.91097 -4.09584,-4.48066 -9.0245,-8.29439 -14.67108,-10.52338 -5.64657,-2.229 -12.04681,-2.79298 -17.8335,-0.95819 -3.80308,1.20584 -7.25969,3.41283 -10.09689,6.21778 -2.8372,2.80496 -5.06475,6.19735 -6.69634,9.83814 -3.26319,7.28159 -4.12836,15.42346 -4.05014,23.40242 0.0782,7.97895 1.05513,15.92411 1.29111,23.89996 0.23598,7.97585 -0.3006,16.11398 -3.12631,23.57623 -3.515147,9.28296 -10.564146,17.12337 -19.280929,21.87178 -8.716783,4.7484 -19.017039,6.42352 -28.838557,4.98566 -9.821517,-1.43786 -19.129341,-5.93632 -26.567806,-12.5089 -7.438465,-6.57259 -13.013388,-15.17429 -16.273648,-24.5498 -6.5205214,-18.75104 -3.5424707,-40.08291 5.847752,-57.57412 9.390222,-17.49121 24.738274,-31.3183 42.023911,-41.08177 23.71536,-13.39518 51.466777,-19.53251 78.619037,-17.38691 L 142.66199,32.420668 98.816761,-40.906712 20.953663,-2.3531396 80.673903,95.164717 Z"
       id="path05"
       inkscape:connector-curvature="0"
       inkscape:path-effect="#path-effect152"
       inkscape:original-d="m 2020.2653,-269.29961 c 0,-3.77977 -60.4762,-65.76786 -60.4762,-65.76786 l -60.4761,65.76786 59.7202,47.625 55.1845,-9.07143" />
  </g>
</svg>
